<?xml version="1.0" encoding="UTF-8" standalone="no"?>
<!-- Created with Inkscape (http://www.inkscape.org/) -->

<svg
   xmlns:dc="http://purl.org/dc/elements/1.1/"
   xmlns:cc="http://creativecommons.org/ns#"
   xmlns:rdf="http://www.w3.org/1999/02/22-rdf-syntax-ns#"
   xmlns:svg="http://www.w3.org/2000/svg"
   xmlns="http://www.w3.org/2000/svg"
   xmlns:sodipodi="http://sodipodi.sourceforge.net/DTD/sodipodi-0.dtd"
   xmlns:inkscape="http://www.inkscape.org/namespaces/inkscape"
   width="162.80467"
   height="143.47694"
   viewBox="0 0 43.075404 37.961607"
   version="1.1"
   id="svg8"
   sodipodi:docname="logo-full.svg"
   inkscape:version="0.92.3 (2405546, 2018-03-11)">
  <defs
     id="defs2">
    <clipPath
       id="clipPath28"
       clipPathUnits="userSpaceOnUse">
      <path
         inkscape:connector-curvature="0"
         id="path26"
         d="M 0,612 H 792 V 0 H 0 Z" />
    </clipPath>
  </defs>
  <sodipodi:namedview
     id="base"
     pagecolor="#ffffff"
     bordercolor="#666666"
     borderopacity="1.0"
     inkscape:pageopacity="0.0"
     inkscape:pageshadow="2"
     inkscape:zoom="1"
     inkscape:cx="-92.743206"
     inkscape:cy="4.1189678"
     inkscape:document-units="mm"
     inkscape:current-layer="text4678"
     showgrid="false"
     fit-margin-top="1"
     fit-margin-left="0"
     fit-margin-right="0"
     fit-margin-bottom="10"
     units="px"
     inkscape:window-width="1813"
     inkscape:window-height="1032"
     inkscape:window-x="1106"
     inkscape:window-y="300"
     inkscape:window-maximized="0" />
  <metadata
     id="metadata5">
    <rdf:RDF>
      <cc:Work
         rdf:about="">
        <dc:format>image/svg+xml</dc:format>
        <dc:type
           rdf:resource="http://purl.org/dc/dcmitype/StillImage" />
        <dc:title />
      </cc:Work>
    </rdf:RDF>
  </metadata>
  <g
     inkscape:label="Laag 1"
     inkscape:groupmode="layer"
     id="layer1"
     transform="translate(-5.392077,-40.165168)">
    <g
       transform="matrix(0.04515555,0,0,-0.04515555,-4.2684585,73.341989)"
       inkscape:label="Tripetto Logo (Square)"
       id="g18">
      <g
         transform="matrix(2.1748234,0,0,2.1627957,-4.4869388,-120.45176)"
         id="g22">
        <g
           clip-path="url(#clipPath28)"
           id="g24">
          <g
             transform="translate(230.7983,344.5283)"
             id="g34">
            <path
               inkscape:connector-curvature="0"
               id="path36"
               style="fill:#88288f;fill-opacity:1;fill-rule:evenodd;stroke:none"
               d="M 0,0 41.712,24.083 20.856,36.124 -0.001,48.165 Z" />
          </g>
          <g
             transform="translate(189.0854,320.4453)"
             id="g38">
            <path
               inkscape:connector-curvature="0"
               id="path40"
               style="fill:#ca1f25;fill-opacity:1;fill-rule:evenodd;stroke:none"
               d="M 0,0 41.713,24.083 0,48.166 Z" />
          </g>
          <g
             transform="translate(209.9419,356.5698)"
             id="g42">
            <path
               inkscape:connector-curvature="0"
               id="path44"
               style="fill:#ce3d95;fill-opacity:1;fill-rule:evenodd;stroke:none"
               d="M 0,0 20.856,-12.042 20.855,36.123 0,24.082 -20.856,12.042 Z" />
          </g>
          <g
             transform="translate(189.0854,320.4453)"
             id="g46">
            <path
               inkscape:connector-curvature="0"
               id="path48"
               style="fill:#da1e25;fill-opacity:1;fill-rule:evenodd;stroke:none"
               d="M 0,0 V 24.083 48.165 L -41.711,24.083 Z" />
          </g>
          <g
             transform="translate(147.374,344.5283)"
             id="g50">
            <path
               inkscape:connector-curvature="0"
               id="path52"
               style="fill:#ed2524;fill-opacity:1;fill-rule:evenodd;stroke:none"
               d="M 0,0 20.855,12.041 41.712,24.083 20.855,36.124 -0.001,48.165 Z" />
          </g>
          <g
             transform="translate(147.374,344.5283)"
             id="g54">
            <path
               inkscape:connector-curvature="0"
               id="path56"
               style="fill:#f06022;fill-opacity:1;fill-rule:evenodd;stroke:none"
               d="M 0,0 -0.001,25.777 V 48.165 L -20.857,36.124 -41.713,24.083 Z" />
          </g>
          <g
             transform="translate(275.3032,363.8032)"
             id="g58">
            <path
               inkscape:connector-curvature="0"
               id="path60"
               style="fill:#006493;fill-opacity:1;fill-rule:evenodd;stroke:none"
               d="M 0,0 -41.712,-24.083 0,-48.166 v 24.083 z" />
          </g>
          <g
             transform="translate(275.3027,315.6372)"
             id="g62">
            <path
               inkscape:connector-curvature="0"
               id="path64"
               style="fill:#007fb4;fill-opacity:1;fill-rule:evenodd;stroke:none"
               d="m 0,0 -41.711,24.083 v -48.165 l 20.855,12.04 z" />
          </g>
          <g
             transform="translate(233.5913,315.6382)"
             id="g66">
            <path
               inkscape:connector-curvature="0"
               id="path68"
               style="fill:#00a1b6;fill-opacity:1;fill-rule:evenodd;stroke:none"
               d="M 0,0 V 24.082 L -41.713,0 0,-24.083 Z" />
          </g>
          <g
             transform="translate(191.8784,315.6377)"
             id="g70">
            <path
               inkscape:connector-curvature="0"
               id="path72"
               style="fill:#00b0d4;fill-opacity:1;fill-rule:evenodd;stroke:none"
               d="m 0,0 0.001,-48.165 41.712,24.083 -20.857,12.041 z" />
          </g>
          <g
             transform="translate(212.7349,279.5137)"
             id="g74">
            <path
               inkscape:connector-curvature="0"
               id="path76"
               style="fill:#4ac4dc;fill-opacity:1;fill-rule:evenodd;stroke:none"
               d="m 0,0 -20.855,-12.041 41.711,-24.083 v 24.082 24.084 z" />
          </g>
          <g
             transform="translate(233.5908,243.3896)"
             id="g78">
            <path
               inkscape:connector-curvature="0"
               id="path80"
               style="fill:#2cb89a;fill-opacity:1;fill-rule:evenodd;stroke:none"
               d="m 0,0 -22.581,13.037 -19.13,11.046 -0.001,-48.166 20.856,12.042 z" />
          </g>
          <g
             transform="translate(144.5884,339.728)"
             id="g82">
            <path
               inkscape:connector-curvature="0"
               id="path84"
               style="fill:#f37b20;fill-opacity:1;fill-rule:evenodd;stroke:none"
               d="M 0,0 -41.713,24.083 V 0 -24.083 Z" />
          </g>
          <g
             transform="translate(144.5884,339.728)"
             id="g86">
            <path
               inkscape:connector-curvature="0"
               id="path88"
               style="fill:#f6921e;fill-opacity:1;fill-rule:evenodd;stroke:none"
               d="M 0,0 -41.713,-24.083 -20.857,-36.125 0,-48.166 Z" />
          </g>
          <g
             transform="translate(144.5884,339.728)"
             id="g90">
            <path
               inkscape:connector-curvature="0"
               id="path92"
               style="fill:#ffcc07;fill-opacity:1;fill-rule:evenodd;stroke:none"
               d="M 0,0 -0.001,-24.083 0,-48.166 41.711,-24.083 Z" />
          </g>
          <g
             transform="translate(165.4438,303.6035)"
             id="g94">
            <path
               inkscape:connector-curvature="0"
               id="path96"
               style="fill:#ffe700;fill-opacity:1;fill-rule:evenodd;stroke:none"
               d="M 0,0 -20.856,-12.041 20.857,-36.123 20.856,12.041 Z" />
          </g>
          <g
             transform="translate(186.2998,219.3145)"
             id="g98">
            <path
               inkscape:connector-curvature="0"
               id="path100"
               style="fill:#a0cc3a;fill-opacity:1;fill-rule:evenodd;stroke:none"
               d="M 0,0 0.001,48.166 -41.712,24.082 -20.856,12.041 Z" />
          </g>
          <g
             transform="translate(144.5874,243.3965)"
             id="g102">
            <path
               inkscape:connector-curvature="0"
               id="path104"
               style="fill:#b7d334;fill-opacity:1;fill-rule:evenodd;stroke:none"
               d="M 0,0 19.506,11.263 41.713,24.084 20.856,36.124 0,48.166 V 24.083 Z" />
          </g>
        </g>
      </g>
    </g>
    <g
       aria-label="full-fledged form kit"
       transform="matrix(0.26458333,0,0,0.26458333,140.45911,27.619341)"
       style="font-style:normal;font-weight:normal;font-size:40px;line-height:1.25;font-family:sans-serif;letter-spacing:0px;word-spacing:0px;fill:#000000;fill-opacity:1;stroke:none"
       id="flowRoot4612">
      <path
         d="m -508.94922,176.91118 v -8.53125 h -1.54036 v -1.33073 h 1.54036 v -1.2487 q 0,-1.57682 0.82031,-2.43359 0.82943,-0.86588 2.30599,-0.86588 0.3099,0 0.61979,0.0547 0.31902,0.0456 0.70183,0.13672 l -0.21875,1.36719 q -0.16406,-0.0365 -0.40104,-0.0638 -0.22787,-0.0274 -0.48308,-0.0274 -0.78385,0 -1.16666,0.47396 -0.38282,0.46485 -0.38282,1.35807 v 1.2487 h 2.05079 v 1.33073 h -2.05079 v 8.53125 z"
         style="font-style:normal;font-variant:normal;font-weight:normal;font-stretch:normal;font-size:18.66666603px;font-family:Roboto;-inkscape-font-specification:'Roboto, Normal';font-variant-ligatures:normal;font-variant-caps:normal;font-variant-numeric:normal;font-feature-settings:normal;text-align:start;writing-mode:lr-tb;text-anchor:start"
         id="path4738"
         inkscape:connector-curvature="0" />
      <path
         d="m -496.98177,175.45285 q -0.46484,0.79297 -1.19401,1.22135 -0.72917,0.42839 -1.6862,0.42839 -1.61328,0 -2.51562,-1.02995 -0.90235,-1.02995 -0.90235,-3.20833 v -5.81511 h 1.79557 v 5.83334 q 0,1.57682 0.46485,2.16927 0.46484,0.59244 1.44922,0.59244 0.95703,0 1.57682,-0.38281 0.62891,-0.39193 0.94792,-1.10286 v -7.10938 h 1.79557 v 9.86198 h -1.61328 z"
         style="font-style:normal;font-variant:normal;font-weight:normal;font-stretch:normal;font-size:18.66666603px;font-family:Roboto;-inkscape-font-specification:'Roboto, Normal';font-variant-ligatures:normal;font-variant-caps:normal;font-variant-numeric:normal;font-feature-settings:normal;text-align:start;writing-mode:lr-tb;text-anchor:start"
         id="path4740"
         inkscape:connector-curvature="0" />
      <path
         d="m -490.69271,176.91118 h -1.79557 v -14.21875 h 1.79557 z"
         style="font-style:normal;font-variant:normal;font-weight:normal;font-stretch:normal;font-size:18.66666603px;font-family:Roboto;-inkscape-font-specification:'Roboto, Normal';font-variant-ligatures:normal;font-variant-caps:normal;font-variant-numeric:normal;font-feature-settings:normal;text-align:start;writing-mode:lr-tb;text-anchor:start"
         id="path4742"
         inkscape:connector-curvature="0" />
      <path
         d="m -485.98958,176.91118 h -1.79558 v -14.21875 h 1.79558 z"
         style="font-style:normal;font-variant:normal;font-weight:normal;font-stretch:normal;font-size:18.66666603px;font-family:Roboto;-inkscape-font-specification:'Roboto, Normal';font-variant-ligatures:normal;font-variant-caps:normal;font-variant-numeric:normal;font-feature-settings:normal;text-align:start;writing-mode:lr-tb;text-anchor:start"
         id="path4744"
         inkscape:connector-curvature="0" />
      <path
         d="m -479.74609,172.00754 h -4.46615 v -1.40365 h 4.46615 z"
         style="font-style:normal;font-variant:normal;font-weight:normal;font-stretch:normal;font-size:18.66666603px;font-family:Roboto;-inkscape-font-specification:'Roboto, Normal';font-variant-ligatures:normal;font-variant-caps:normal;font-variant-numeric:normal;font-feature-settings:normal;text-align:start;writing-mode:lr-tb;text-anchor:start"
         id="path4746"
         inkscape:connector-curvature="0" />
      <path
         d="m -477.3763,176.91118 v -8.53125 h -1.54037 v -1.33073 h 1.54037 v -1.2487 q 0,-1.57682 0.82031,-2.43359 0.82943,-0.86588 2.30599,-0.86588 0.3099,0 0.61979,0.0547 0.31901,0.0456 0.70182,0.13672 l -0.21875,1.36719 q -0.16406,-0.0365 -0.40104,-0.0638 -0.22786,-0.0274 -0.48307,-0.0274 -0.78385,0 -1.16667,0.47396 -0.38281,0.46485 -0.38281,1.35807 v 1.2487 h 2.05078 v 1.33073 h -2.05078 v 8.53125 z"
         style="font-style:normal;font-variant:normal;font-weight:normal;font-stretch:normal;font-size:18.66666603px;font-family:Roboto;-inkscape-font-specification:'Roboto, Normal';font-variant-ligatures:normal;font-variant-caps:normal;font-variant-numeric:normal;font-feature-settings:normal;text-align:start;writing-mode:lr-tb;text-anchor:start"
         id="path4748"
         inkscape:connector-curvature="0" />
      <path
         d="m -469.72917,176.91118 h -1.79557 v -14.21875 h 1.79557 z"
         style="font-style:normal;font-variant:normal;font-weight:normal;font-stretch:normal;font-size:18.66666603px;font-family:Roboto;-inkscape-font-specification:'Roboto, Normal';font-variant-ligatures:normal;font-variant-caps:normal;font-variant-numeric:normal;font-feature-settings:normal;text-align:start;writing-mode:lr-tb;text-anchor:start"
         id="path4750"
         inkscape:connector-curvature="0" />
      <path
         d="m -462.875,177.10259 q -2.05989,0 -3.28125,-1.36719 -1.21224,-1.3763 -1.21224,-3.5638 v -0.40104 q 0,-2.10547 1.2487,-3.5 1.25781,-1.40365 2.97135,-1.40365 1.9961,0 3.01693,1.20313 1.02083,1.20312 1.02083,3.20833 v 1.12109 h -6.39843 l -0.0273,0.0456 q 0.0273,1.42187 0.72005,2.34244 0.69271,0.91146 1.94141,0.91146 0.91146,0 1.59505,-0.25521 0.69271,-0.26432 1.19401,-0.72005 l 0.70183,1.16667 q -0.52865,0.51953 -1.39453,0.86588 -0.86589,0.34636 -2.09636,0.34636 z m -0.27344,-8.82292 q -0.90234,0 -1.54036,0.76563 -0.63802,0.75651 -0.78386,1.90494 l 0.0182,0.0456 h 4.54818 v -0.23698 q 0,-1.05729 -0.5651,-1.76823 -0.56511,-0.71094 -1.67709,-0.71094 z"
         style="font-style:normal;font-variant:normal;font-weight:normal;font-stretch:normal;font-size:18.66666603px;font-family:Roboto;-inkscape-font-specification:'Roboto, Normal';font-variant-ligatures:normal;font-variant-caps:normal;font-variant-numeric:normal;font-feature-settings:normal;text-align:start;writing-mode:lr-tb;text-anchor:start"
         id="path4752"
         inkscape:connector-curvature="0" />
      <path
         d="m -457.4974,172.16248 q 0,-2.3789 1.01172,-3.83724 1.02084,-1.45833 2.85287,-1.45833 0.86588,0 1.53125,0.31901 0.67448,0.31901 1.14843,0.92969 v -5.42318 h 1.79558 v 14.21875 h -1.46745 l -0.20964,-1.21224 q -0.48307,0.69271 -1.18489,1.04818 -0.70182,0.35547 -1.63151,0.35547 -1.80469,0 -2.82552,-1.30339 -1.02084,-1.3125 -1.02084,-3.44531 z m 1.79558,0.19141 q 0,1.49479 0.61067,2.39714 0.61068,0.89322 1.89584,0.89322 0.80208,0 1.34896,-0.36458 0.54687,-0.36458 0.89322,-1.02083 v -4.60287 q -0.34635,-0.61067 -0.90234,-0.96614 -0.54687,-0.36459 -1.32161,-0.36459 -1.29427,0 -1.91407,1.06641 -0.61067,1.06641 -0.61067,2.77083 z"
         style="font-style:normal;font-variant:normal;font-weight:normal;font-stretch:normal;font-size:18.66666603px;font-family:Roboto;-inkscape-font-specification:'Roboto, Normal';font-variant-ligatures:normal;font-variant-caps:normal;font-variant-numeric:normal;font-feature-settings:normal;text-align:start;writing-mode:lr-tb;text-anchor:start"
         id="path4754"
         inkscape:connector-curvature="0" />
      <path
         d="m -446.86979,172.16248 q 0,-2.3789 1.03906,-3.83724 1.03906,-1.45833 2.87109,-1.45833 0.93881,0 1.64974,0.38281 0.71094,0.3737 1.1849,1.08464 l 0.21875,-1.28516 h 1.43099 v 9.91667 q 0,1.89583 -1.10287,2.90755 -1.10286,1.02083 -3.18098,1.02083 -0.71094,0 -1.54037,-0.20052 -0.82031,-0.1914 -1.44922,-0.52864 l 0.45573,-1.39453 q 0.48307,0.27343 1.16667,0.4375 0.68359,0.17317 1.34896,0.17317 1.3125,0 1.90494,-0.60156 0.60157,-0.59245 0.60157,-1.8138 v -1.11198 q -0.48308,0.61979 -1.15756,0.9388 -0.67447,0.3099 -1.54947,0.3099 -1.81381,0 -2.85287,-1.3125 -1.03906,-1.3125 -1.03906,-3.4362 z m 1.79557,0.19141 q 0,1.48568 0.62891,2.38802 0.6289,0.90234 1.91406,0.90234 0.8112,0 1.35807,-0.36458 0.54688,-0.3737 0.90235,-1.04818 v -4.53906 q -0.34636,-0.6289 -0.90235,-0.99349 -0.55599,-0.3737 -1.33984,-0.3737 -1.28516,0 -1.92318,1.07553 -0.63802,1.07552 -0.63802,2.76171 z"
         style="font-style:normal;font-variant:normal;font-weight:normal;font-stretch:normal;font-size:18.66666603px;font-family:Roboto;-inkscape-font-specification:'Roboto, Normal';font-variant-ligatures:normal;font-variant-caps:normal;font-variant-numeric:normal;font-feature-settings:normal;text-align:start;writing-mode:lr-tb;text-anchor:start"
         id="path4756"
         inkscape:connector-curvature="0" />
      <path
         d="m -431.77604,177.10259 q -2.0599,0 -3.28125,-1.36719 -1.21224,-1.3763 -1.21224,-3.5638 v -0.40104 q 0,-2.10547 1.2487,-3.5 1.25781,-1.40365 2.97135,-1.40365 1.99609,0 3.01693,1.20313 1.02083,1.20312 1.02083,3.20833 v 1.12109 h -6.39844 l -0.0273,0.0456 q 0.0273,1.42187 0.72005,2.34244 0.69271,0.91146 1.94141,0.91146 0.91146,0 1.59505,-0.25521 0.69271,-0.26432 1.19401,-0.72005 l 0.70182,1.16667 q -0.52864,0.51953 -1.39453,0.86588 -0.86588,0.34636 -2.09635,0.34636 z m -0.27344,-8.82292 q -0.90234,0 -1.54036,0.76563 -0.63802,0.75651 -0.78386,1.90494 l 0.0182,0.0456 h 4.54818 v -0.23698 q 0,-1.05729 -0.56511,-1.76823 -0.5651,-0.71094 -1.67708,-0.71094 z"
         style="font-style:normal;font-variant:normal;font-weight:normal;font-stretch:normal;font-size:18.66666603px;font-family:Roboto;-inkscape-font-specification:'Roboto, Normal';font-variant-ligatures:normal;font-variant-caps:normal;font-variant-numeric:normal;font-feature-settings:normal;text-align:start;writing-mode:lr-tb;text-anchor:start"
         id="path4758"
         inkscape:connector-curvature="0" />
      <path
         d="m -426.39843,172.16248 q 0,-2.3789 1.01171,-3.83724 1.02084,-1.45833 2.85287,-1.45833 0.86588,0 1.53125,0.31901 0.67448,0.31901 1.14844,0.92969 v -5.42318 h 1.79557 v 14.21875 h -1.46745 l -0.20963,-1.21224 q -0.48308,0.69271 -1.1849,1.04818 -0.70182,0.35547 -1.63151,0.35547 -1.80469,0 -2.82552,-1.30339 -1.02083,-1.3125 -1.02083,-3.44531 z m 1.79557,0.19141 q 0,1.49479 0.61067,2.39714 0.61068,0.89322 1.89584,0.89322 0.80208,0 1.34896,-0.36458 0.54687,-0.36458 0.89323,-1.02083 v -4.60287 q -0.34636,-0.61067 -0.90235,-0.96614 -0.54687,-0.36459 -1.32161,-0.36459 -1.29427,0 -1.91407,1.06641 -0.61067,1.06641 -0.61067,2.77083 z"
         style="font-style:normal;font-variant:normal;font-weight:normal;font-stretch:normal;font-size:18.66666603px;font-family:Roboto;-inkscape-font-specification:'Roboto, Normal';font-variant-ligatures:normal;font-variant-caps:normal;font-variant-numeric:normal;font-feature-settings:normal;text-align:start;writing-mode:lr-tb;text-anchor:start"
         id="path4760"
         inkscape:connector-curvature="0" />
      <path
         d="m -410.0013,176.91118 v -8.53125 h -1.54037 v -1.33073 h 1.54037 v -1.2487 q 0,-1.57682 0.82031,-2.43359 0.82942,-0.86588 2.30599,-0.86588 0.30989,0 0.61979,0.0547 0.31901,0.0456 0.70182,0.13672 l -0.21875,1.36719 q -0.16406,-0.0365 -0.40104,-0.0638 -0.22786,-0.0274 -0.48307,-0.0274 -0.78386,0 -1.16667,0.47396 -0.38281,0.46485 -0.38281,1.35807 v 1.2487 h 2.05078 v 1.33073 h -2.05078 v 8.53125 z"
         style="font-style:normal;font-variant:normal;font-weight:normal;font-stretch:normal;font-size:18.66666603px;font-family:Roboto;-inkscape-font-specification:'Roboto, Normal';font-variant-ligatures:normal;font-variant-caps:normal;font-variant-numeric:normal;font-feature-settings:normal;text-align:start;writing-mode:lr-tb;text-anchor:start"
         id="path4762"
         inkscape:connector-curvature="0" />
      <path
         d="m -404.71485,171.88905 q 0,-2.1875 1.1849,-3.60026 1.1849,-1.42188 3.21745,-1.42188 2.05078,0 3.23567,1.41276 1.19401,1.41276 1.19401,3.60938 v 0.20052 q 0,2.20573 -1.18489,3.60937 -1.1849,1.40365 -3.22656,1.40365 -2.04167,0 -3.23568,-1.40365 -1.1849,-1.41276 -1.1849,-3.60937 z m 1.79558,0.20052 q 0,1.56771 0.65625,2.58854 0.66536,1.02083 1.96875,1.02083 1.28515,0 1.95052,-1.02083 0.66536,-1.02083 0.66536,-2.58854 v -0.20052 q 0,-1.54948 -0.67448,-2.57943 -0.66536,-1.02995 -1.95963,-1.02995 -1.28516,0 -1.95052,1.02995 -0.65625,1.02995 -0.65625,2.57943 z"
         style="font-style:normal;font-variant:normal;font-weight:normal;font-stretch:normal;font-size:18.66666603px;font-family:Roboto;-inkscape-font-specification:'Roboto, Normal';font-variant-ligatures:normal;font-variant-caps:normal;font-variant-numeric:normal;font-feature-settings:normal;text-align:start;writing-mode:lr-tb;text-anchor:start"
         id="path4764"
         inkscape:connector-curvature="0" />
      <path
         d="m -389.01953,168.63514 -0.92058,-0.0547 q -0.71093,0 -1.20312,0.33724 -0.48307,0.33724 -0.7474,0.94792 v 7.04557 h -1.79557 v -9.86198 h 1.60417 l 0.17317,1.44011 q 0.41927,-0.76563 1.02995,-1.19401 0.61979,-0.42839 1.42188,-0.42839 0.20052,0 0.38281,0.0365 0.18229,0.0273 0.30078,0.0638 z"
         style="font-style:normal;font-variant:normal;font-weight:normal;font-stretch:normal;font-size:18.66666603px;font-family:Roboto;-inkscape-font-specification:'Roboto, Normal';font-variant-ligatures:normal;font-variant-caps:normal;font-variant-numeric:normal;font-feature-settings:normal;text-align:start;writing-mode:lr-tb;text-anchor:start"
         id="path4766"
         inkscape:connector-curvature="0" />
      <path
         d="m -385.66537,167.0492 0.1276,1.29427 q 0.48308,-0.70182 1.22136,-1.08463 0.74739,-0.39193 1.73177,-0.39193 0.98437,0 1.6862,0.45573 0.71093,0.45573 1.0664,1.36719 0.46485,-0.83854 1.23047,-1.33073 0.76563,-0.49219 1.78646,-0.49219 1.50391,0 2.37891,1.03906 0.875,1.02995 0.875,3.10808 v 5.89713 h -1.79558 v -5.91536 q 0,-1.45834 -0.5013,-2.0599 -0.5013,-0.61068 -1.49479,-0.61068 -0.92057,0 -1.49479,0.63803 -0.56511,0.63802 -0.66537,1.61328 v 0.0729 6.26172 h -1.80468 v -5.91536 q 0,-1.38542 -0.51953,-2.02344 -0.51042,-0.64714 -1.47657,-0.64714 -0.82031,0 -1.34896,0.33724 -0.52864,0.33724 -0.81119,0.94792 v 7.30078 h -1.79558 v -9.86198 z"
         style="font-style:normal;font-variant:normal;font-weight:normal;font-stretch:normal;font-size:18.66666603px;font-family:Roboto;-inkscape-font-specification:'Roboto, Normal';font-variant-ligatures:normal;font-variant-caps:normal;font-variant-numeric:normal;font-feature-settings:normal;text-align:start;writing-mode:lr-tb;text-anchor:start"
         id="path4768"
         inkscape:connector-curvature="0" />
      <path
         d="m -363.33464,172.363 h -1.16666 v 4.54818 h -1.79558 v -14.21875 h 1.79558 v 8.23958 h 1.14844 l 2.69791,-3.88281 h 2.15104 l -3.37239,4.48438 3.85547,5.3776 h -2.11459 z"
         style="font-style:normal;font-variant:normal;font-weight:normal;font-stretch:normal;font-size:18.66666603px;font-family:Roboto;-inkscape-font-specification:'Roboto, Normal';font-variant-ligatures:normal;font-variant-caps:normal;font-variant-numeric:normal;font-feature-settings:normal;text-align:start;writing-mode:lr-tb;text-anchor:start"
         id="path4770"
         inkscape:connector-curvature="0" />
      <path
         d="m -354.77605,176.91118 h -1.79557 v -9.86198 h 1.79557 z m 0,-12.38672 h -1.79557 v -1.83203 h 1.79557 z"
         style="font-style:normal;font-variant:normal;font-weight:normal;font-stretch:normal;font-size:18.66666603px;font-family:Roboto;-inkscape-font-specification:'Roboto, Normal';font-variant-ligatures:normal;font-variant-caps:normal;font-variant-numeric:normal;font-feature-settings:normal;text-align:start;writing-mode:lr-tb;text-anchor:start"
         id="path4772"
         inkscape:connector-curvature="0" />
      <path
         d="m -349.64454,164.6703 v 2.3789 h 1.86849 v 1.33073 h -1.86849 v 5.98828 q 0,0.69271 0.28255,0.97526 0.29167,0.28256 0.76563,0.28256 0.15494,0 0.33724,-0.0365 0.1914,-0.0365 0.33723,-0.0911 l 0.23698,1.23047 q -0.20052,0.16406 -0.59244,0.26432 -0.38282,0.10938 -0.77474,0.10938 -1.09375,0 -1.74089,-0.65625 -0.64713,-0.66537 -0.64713,-2.07813 v -5.98828 h -1.56771 v -1.33073 h 1.56771 v -2.3789 z"
         style="font-style:normal;font-variant:normal;font-weight:normal;font-stretch:normal;font-size:18.66666603px;font-family:Roboto;-inkscape-font-specification:'Roboto, Normal';font-variant-ligatures:normal;font-variant-caps:normal;font-variant-numeric:normal;font-feature-settings:normal;text-align:start;writing-mode:lr-tb;text-anchor:start"
         id="path4774"
         inkscape:connector-curvature="0" />
      <g
         aria-label="cdsc"
         style="font-style:normal;font-weight:normal;font-size:40px;line-height:1.25;font-family:sans-serif;letter-spacing:0px;word-spacing:0px;fill:#000000;fill-opacity:1;stroke:none"
         id="text4678" />
    </g>
    <g
       aria-label="Tripetto"
       transform="matrix(0.26458333,0,0,0.26458333,40.689139,13.034175)"
       style="font-style:normal;font-weight:normal;font-size:40px;line-height:1.25;font-family:sans-serif;letter-spacing:0px;word-spacing:0px;fill:#000000;fill-opacity:1;stroke:none"
       id="flowRoot4620">
      <path
         d="m -117.38672,188.0811 h -5.63281 v 16.83008 h -3.99219 V 188.0811 h -5.60547 v -3.07617 h 15.23047 z"
         style="font-style:normal;font-variant:normal;font-weight:bold;font-stretch:normal;font-size:28px;font-family:Roboto;-inkscape-font-specification:'Roboto, Bold';font-variant-ligatures:normal;font-variant-caps:normal;font-variant-numeric:normal;font-feature-settings:normal;text-align:start;writing-mode:lr-tb;text-anchor:start"
         id="path4711"
         inkscape:connector-curvature="0" />
      <path
         d="m -111.17969,196.95415 v 7.95703 h -3.99219 v -19.90625 h 7.50586 q 3.4043,0 5.31836,1.5586 1.92774,1.54492 1.92774,4.32031 0,1.54492 -0.80664,2.65234 -0.80664,1.10742 -2.36524,1.79102 1.76367,0.51953 2.5293,1.73633 0.7793,1.21679 0.7793,3.00781 v 1.46289 q 0,0.83398 0.21875,1.75 0.232419,0.90234 0.779294,1.33984 v 0.28711 h -4.115234 q -0.54688,-0.4375 -0.71094,-1.46289 -0.16406,-1.02539 -0.16406,-1.94141 v -1.4082 q 0,-1.49023 -0.82031,-2.31055 -0.80664,-0.83398 -2.28321,-0.83398 z m 0,-3.07617 h 3.44531 q 1.68165,0 2.50196,-0.71094 0.83398,-0.71094 0.83398,-2.10547 0,-1.36719 -0.83398,-2.17383 -0.82031,-0.80664 -2.4336,-0.80664 h -3.51367 z"
         style="font-style:normal;font-variant:normal;font-weight:bold;font-stretch:normal;font-size:28px;font-family:Roboto;-inkscape-font-specification:'Roboto, Bold';font-variant-ligatures:normal;font-variant-caps:normal;font-variant-numeric:normal;font-feature-settings:normal;text-align:start;writing-mode:lr-tb;text-anchor:start"
         id="path4713"
         inkscape:connector-curvature="0" />
      <path
         d="m -92.394531,204.91118 h -3.992188 v -19.90625 h 3.992188 z"
         style="font-style:normal;font-variant:normal;font-weight:bold;font-stretch:normal;font-size:28px;font-family:Roboto;-inkscape-font-specification:'Roboto, Bold';font-variant-ligatures:normal;font-variant-caps:normal;font-variant-numeric:normal;font-feature-settings:normal;text-align:start;writing-mode:lr-tb;text-anchor:start"
         id="path4715"
         inkscape:connector-curvature="0" />
      <path
         d="m -84.4375,197.69243 v 7.21875 h -3.992187 V 185.00493 H -80.5 q 3.431641,0 5.400391,1.75 1.96875,1.75 1.96875,4.60742 0,2.85743 -1.96875,4.59375 -1.96875,1.73633 -5.400391,1.73633 z m 0,-3.07617 H -80.5 q 1.667969,0 2.529297,-0.90234 0.861328,-0.91602 0.861328,-2.32422 0,-1.43555 -0.861328,-2.36524 Q -78.818359,188.0811 -80.5,188.0811 h -3.9375 z"
         style="font-style:normal;font-variant:normal;font-weight:bold;font-stretch:normal;font-size:28px;font-family:Roboto;-inkscape-font-specification:'Roboto, Bold';font-variant-ligatures:normal;font-variant-caps:normal;font-variant-numeric:normal;font-feature-settings:normal;text-align:start;writing-mode:lr-tb;text-anchor:start"
         id="path4717"
         inkscape:connector-curvature="0" />
      <path
         d="m -57.927734,196.16118 h -8.244141 v 5.6875 h 9.638672 v 3.0625 h -13.630859 v -19.90625 h 13.603515 v 3.07617 h -9.611328 v 5.00391 h 8.244141 z"
         style="font-style:normal;font-variant:normal;font-weight:bold;font-stretch:normal;font-size:28px;font-family:Roboto;-inkscape-font-specification:'Roboto, Bold';font-variant-ligatures:normal;font-variant-caps:normal;font-variant-numeric:normal;font-feature-settings:normal;text-align:start;writing-mode:lr-tb;text-anchor:start"
         id="path4719"
         inkscape:connector-curvature="0" />
      <path
         d="m -40.058594,188.0811 h -5.632812 v 16.83008 h -3.992188 V 188.0811 h -5.605468 v -3.07617 h 15.230468 z"
         style="font-style:normal;font-variant:normal;font-weight:bold;font-stretch:normal;font-size:28px;font-family:Roboto;-inkscape-font-specification:'Roboto, Bold';font-variant-ligatures:normal;font-variant-caps:normal;font-variant-numeric:normal;font-feature-settings:normal;text-align:start;writing-mode:lr-tb;text-anchor:start"
         id="path4721"
         inkscape:connector-curvature="0" />
      <path
         d="m -23.816406,188.0811 h -5.632813 v 16.83008 h -3.992187 V 188.0811 h -5.605469 v -3.07617 h 15.230469 z"
         style="font-style:normal;font-variant:normal;font-weight:bold;font-stretch:normal;font-size:28px;font-family:Roboto;-inkscape-font-specification:'Roboto, Bold';font-variant-ligatures:normal;font-variant-caps:normal;font-variant-numeric:normal;font-feature-settings:normal;text-align:start;writing-mode:lr-tb;text-anchor:start"
         id="path4723"
         inkscape:connector-curvature="0" />
      <path
         d="m -6.0292969,196.74907 q 0,3.66406 -2.3242187,6.05664 -2.3105474,2.39258 -6.0156254,2.39258 -3.677734,0 -5.974609,-2.39258 -2.296875,-2.39258 -2.296875,-6.05664 v -3.58203 q 0,-3.65039 2.283203,-6.04297 2.296875,-2.40625 5.974609,-2.40625 3.705079,0 6.0292974,2.40625 2.3242187,2.39258 2.3242187,6.04297 z m -3.9921871,-3.60937 q 0,-2.32422 -1.16211,-3.81446 -1.162109,-1.49023 -3.199219,-1.49023 -2.037109,0 -3.158203,1.49023 -1.121093,1.47657 -1.121093,3.81446 v 3.60937 q 0,2.36524 1.134765,3.85547 1.134766,1.49024 3.158203,1.49024 2.050782,0 3.199219,-1.49024 1.148438,-1.49023 1.148438,-3.85547 z"
         style="font-style:normal;font-variant:normal;font-weight:bold;font-stretch:normal;font-size:28px;font-family:Roboto;-inkscape-font-specification:'Roboto, Bold';font-variant-ligatures:normal;font-variant-caps:normal;font-variant-numeric:normal;font-feature-settings:normal;text-align:start;writing-mode:lr-tb;text-anchor:start"
         id="path4725"
         inkscape:connector-curvature="0" />
    </g>
  </g>
</svg>
