<svg class="st18" width="3.1508in" height="1.8895in" color-interpolation-filters="sRGB" version="1.1" viewBox="0 0 226.86 136.04" xml:space="preserve" xmlns="http://www.w3.org/2000/svg" xmlns:xlink="http://www.w3.org/1999/xlink">
	<style type="text/css">
	<![CDATA[
		.st1 {fill:none;stroke:none;stroke-width:0.25}
		.st2 {fill:#41719c;font-family:Arial;font-size:1.00001em}
		.st3 {visibility:visible}
		.st4 {fill:#41719c;fill-opacity:0.25;filter:url(#filter_2);stroke:#41719c;stroke-opacity:0.25}
		.st5 {fill:url(#grad0-13);stroke:#2d5171;stroke-width:0.75}
		.st6 {fill:#feffff;font-family:Arial;font-size:0.833336em;font-weight:bold}
		.st7 {font-size:1em;font-style:italic;font-weight:normal}
		.st8 {stroke:#bdd0e9;stroke-dasharray:3,3;stroke-linecap:round;stroke-linejoin:round;stroke-width:1}
		.st9 {marker-start:url(#mrkr5-24);stroke:#41719c;stroke-linecap:round;stroke-linejoin:round;stroke-width:1}
		.st10 {fill:#41719c;fill-opacity:1;stroke:#41719c;stroke-opacity:1;stroke-width:0.28409090909091}
		.st11 {fill:#fec000;fill-opacity:0.25;filter:url(#filter_2);stroke:#fec000;stroke-opacity:0.25}
		.st12 {fill:url(#grad0-31);stroke:#ba8c00;stroke-width:0.75}
		.st13 {fill:#feffff;font-family:Arial;font-size:0.833336em}
		.st14 {marker-end:url(#mrkr5-38);stroke:#70ad47;stroke-linecap:round;stroke-linejoin:round;stroke-width:1}
		.st15 {fill:#70ad47;fill-opacity:1;stroke:#70ad47;stroke-opacity:1;stroke-width:0.28409090909091}
		.st16 {fill:#70ad47;fill-opacity:0.25;filter:url(#filter_2);stroke:#70ad47;stroke-opacity:0.25}
		.st17 {fill:url(#grad0-45);stroke:#507e31;stroke-width:0.75}
		.st18 {fill:none;fill-rule:evenodd;font-size:12px;overflow:visible;stroke-linecap:square;stroke-miterlimit:3}
	]]>
	</style>
	<defs id="Patterns_And_Gradients">
		<linearGradient id="grad0-13" gradientTransform="rotate(250 .5 .5)">
			<stop stop-color="#386288" offset="0"/>
			<stop stop-color="#386288" offset=".48"/>
			<stop stop-color="#41719c" offset=".82"/>
		</linearGradient>
		<linearGradient id="grad0-31" gradientTransform="rotate(250 .5 .5)">
			<stop stop-color="#dfa800" offset="0"/>
			<stop stop-color="#dfa800" offset=".48"/>
			<stop stop-color="#fec000" offset=".82"/>
		</linearGradient>
		<linearGradient id="grad0-45" gradientTransform="rotate(250 .5 .5)">
			<stop stop-color="#61973d" offset="0"/>
			<stop stop-color="#61973d" offset=".48"/>
			<stop stop-color="#70ad47" offset=".82"/>
		</linearGradient>
	</defs>
	<defs id="Markers">
		<g id="lend5">
			<path d="m2 1-2-1 1.9812-0.99339c-0.30944 0.62887-0.30816 1.366 0.00348 1.9938"/>
		</g>
		<marker id="mrkr5-24" class="st10" overflow="visible" orient="auto" refX="5.8">
			<use transform="scale(3.52)" xlink:href="#lend5"/>
		</marker>
		<marker id="mrkr5-38" class="st15" overflow="visible" orient="auto" refX="-6.16">
			<use transform="scale(-3.52)" xlink:href="#lend5"/>
		</marker>
	</defs>
	<defs id="Filters">
		<filter id="filter_2">
			<feGaussianBlur stdDeviation="2"/>
		</filter>
	</defs>
	<g>
		<title>Pagina-1</title>
		<g transform="translate(3.0294 -115.8)">
			<title>Blad.1</title>
			<desc>Builder domain</desc>
			<rect class="st1" y="116.04" width="101.06" height="20"/>
			<text class="st2" x="13.51" y="129.64">Builder domain</text>
		</g>
		<g transform="translate(122.08 -115.8)">
			<title>Blad.2</title>
			<desc>Runner domain</desc>
			<rect class="st1" y="116.04" width="101.06" height="20"/>
			<text class="st2" x="5.51" y="129.64">Runner domain</text>
		</g>
		<g transform="translate(122.08 -66.665)">
			<title>Rechthoek.5</title>
			<desc>Block Rendering</desc>
			<g class="st3" transform="translate(.3456 1.9728)">
				<rect class="st4" y="94.269" width="101.06" height="41.776"/>
			</g>
			<rect class="st5" y="94.269" width="101.06" height="41.776"/>
			<text class="st6" x="36.91" y="112.14">Block <tspan class="st7" x="27.46" dy="1.202em">Rendering</tspan></text>
		</g>
		<g transform="translate(-22.96 84.297) rotate(-90)">
			<title>Blad.7</title>
			<path class="st8" d="m0 136.04h79.37"/>
		</g>
		<g transform="translate(308.66 69.38) rotate(90)">
			<title>Blad.11</title>
			<path class="st9" d="m5.8 136.04h0.36 20.1"/>
		</g>
		<g transform="translate(3.0294 -5.3478)">
			<title>Rechthoek.6</title>
			<desc>Properties interface</desc>
			<g class="st3" transform="translate(.3456 1.9728)">
				<rect class="st11" y="94.269" width="220.11" height="41.776"/>
			</g>
			<rect class="st12" y="94.269" width="220.11" height="41.776"/>
			<text class="st13" x="66.7" y="118.16">Properties interface</text>
		</g>
		<g transform="translate(189.11 62.665) rotate(90)">
			<title>Blad.12</title>
			<path class="st14" d="m0 136.04h20.1"/>
		</g>
		<g transform="translate(3.0294 -66.665)">
			<title>Rechthoek</title>
			<desc>Block Package</desc>
			<g class="st3" transform="translate(.3456 1.9728)">
				<rect class="st16" y="94.269" width="101.06" height="41.776"/>
			</g>
			<rect class="st17" y="94.269" width="101.06" height="41.776"/>
			<text class="st6" x="36.91" y="112.14">Block <tspan class="st7" x="31.07" dy="1.202em">Package</tspan></text>
		</g>
	</g>
</svg>
