<svg class="st20" width="4.5721in" height=".76327in" color-interpolation-filters="sRGB" version="1.1" viewBox="0 0 329.19 54.956" xml:space="preserve" xmlns="http://www.w3.org/2000/svg" xmlns:xlink="http://www.w3.org/1999/xlink">
	<style type="text/css">
	<![CDATA[
		.st1 {visibility:visible}
		.st2 {fill:#70ad47;fill-opacity:0.25;filter:url(#filter_2);stroke:#70ad47;stroke-opacity:0.25}
		.st3 {fill:url(#grad0-7);stroke:#507e31;stroke-width:0.75}
		.st4 {fill:#feffff;font-family:Arial;font-size:0.833336em}
		.st5 {font-size:1em}
		.st6 {fill:#ed7d31;fill-opacity:0.25;filter:url(#filter_2);stroke:#ed7d31;stroke-opacity:0.25}
		.st7 {fill:url(#grad0-17);stroke:#ae5a21;stroke-width:0.75}
		.st8 {fill:url(#grad0-27);stroke:#ae5a21;stroke-width:0.75}
		.st9 {fill:#fec000;fill-opacity:0.25;filter:url(#filter_2);stroke:#fec000;stroke-opacity:0.25}
		.st10 {fill:url(#grad0-34);stroke:#ba8c00;stroke-width:0.75}
		.st11 {marker-end:url(#mrkr5-41);stroke:#70ad47;stroke-dasharray:3,3;stroke-linecap:round;stroke-linejoin:round;stroke-width:1}
		.st12 {fill:#70ad47;fill-opacity:1;stroke:#70ad47;stroke-opacity:1;stroke-width:0.28409090909091}
		.st13 {fill:#ffffff;stroke:none;stroke-linecap:butt;stroke-width:7.2}
		.st14 {fill:#61973d;font-family:Arial;font-size:0.833336em}
		.st15 {marker-start:url(#mrkr5-49);stroke:#fec000;stroke-dasharray:3,3;stroke-linecap:round;stroke-linejoin:round;stroke-width:1}
		.st16 {fill:#fec000;fill-opacity:1;stroke:#fec000;stroke-opacity:1;stroke-width:0.28409090909091}
		.st17 {fill:#dfa800;font-family:Arial;font-size:0.833336em}
		.st18 {marker-end:url(#mrkr5-57);stroke:#ed7d31;stroke-dasharray:3,3;stroke-linecap:round;stroke-linejoin:round;stroke-width:1}
		.st19 {fill:#ed7d31;fill-opacity:1;stroke:#ed7d31;stroke-opacity:1;stroke-width:0.28409090909091}
		.st20 {fill:none;fill-rule:evenodd;font-size:12px;overflow:visible;stroke-linecap:square;stroke-miterlimit:3}
	]]>
	</style>
	<defs id="Patterns_And_Gradients">
		<linearGradient id="grad0-7" gradientTransform="rotate(250 .5 .5)">
			<stop stop-color="#61973d" offset="0"/>
			<stop stop-color="#61973d" offset=".48"/>
			<stop stop-color="#70ad47" offset=".82"/>
		</linearGradient>
		<linearGradient id="grad0-17" gradientTransform="rotate(250 .5 .5)">
			<stop stop-color="#d06d29" offset="0"/>
			<stop stop-color="#d06d29" offset=".48"/>
			<stop stop-color="#ed7d31" offset=".82"/>
		</linearGradient>
		<linearGradient id="grad0-27" gradientTransform="rotate(250 .5 .5)">
			<stop stop-color="#a55621" offset="0"/>
			<stop stop-color="#a55621" offset=".48"/>
			<stop stop-color="#d76213" offset=".82"/>
		</linearGradient>
		<linearGradient id="grad0-34" gradientTransform="rotate(250 .5 .5)">
			<stop stop-color="#dfa800" offset="0"/>
			<stop stop-color="#dfa800" offset=".48"/>
			<stop stop-color="#fec000" offset=".82"/>
		</linearGradient>
	</defs>
	<defs id="Markers">
		<g id="lend5">
			<path d="m2 1-2-1 1.9812-0.99339c-0.30944 0.62887-0.30816 1.366 0.00348 1.9938"/>
		</g>
		<marker id="mrkr5-41" class="st12" overflow="visible" orient="auto" refX="-6.16">
			<use transform="scale(-3.52)" xlink:href="#lend5"/>
		</marker>
		<marker id="mrkr5-49" class="st16" overflow="visible" orient="auto" refX="5.8">
			<use transform="scale(3.52)" xlink:href="#lend5"/>
		</marker>
		<marker id="mrkr5-57" class="st19" overflow="visible" orient="auto" refX="-6.16">
			<use transform="scale(-3.52)" xlink:href="#lend5"/>
		</marker>
	</defs>
	<defs id="Filters">
		<filter id="filter_2">
			<feGaussianBlur stdDeviation="2"/>
		</filter>
	</defs>
	<g>
		<title>Pagina-1</title>
		<g transform="translate(109.33 -5.7186)">
			<title>Rechthoek</title>
			<desc>Tripetto Runner</desc>
			<g class="st1" transform="translate(.3456 1.9728)">
				<rect class="st2" y="7.1208" width="63.78" height="47.835"/>
			</g>
			<rect class="st3" y="7.1208" width="63.78" height="47.835"/>
			<text class="st4" x="14.94" y="28.04">Tripetto <tspan class="st5" x="12.16" dy="1.2em">Runner</tspan></text>
		</g>
		<g transform="translate(3.0294 -5.7186)">
			<title>Ezelsoor</title>
			<desc>Form definition JSON</desc>
				<g class="st1" transform="translate(.3456 1.9728)">
					<path class="st6" d="m0 54.96h53.81l9.97-13.29v-34.55h-63.78v47.84z"/>
				</g>
				<path class="st7" d="m0 54.96h53.81l9.97-13.29v-34.55h-63.78v47.84z"/>
				<text class="st4" x="20.22" y="20.12">Form <tspan class="st5" x="11.87" dy="1.2em">definition </tspan><tspan class="st5" x="18.55" dy="1.2em">JSON</tspan></text>
			<g transform="translate(51.024)">
				<title>Blad.3</title>
				<g class="st1" transform="translate(.3456 1.9728)">
					<path class="st6" d="m2.79 54.96 9.97-13.29-12.76 3.72 2.79 9.57z"/>
				</g>
				<path class="st8" d="m2.79 54.96 9.97-13.29-12.76 3.72 2.79 9.57z"/>
			</g>
		</g>
		<g transform="translate(261.69 -5.7186)">
			<title>Rechthoek.4</title>
			<desc>UI</desc>
			<g class="st1" transform="translate(.3456 1.9728)">
				<rect class="st9" y="7.1208" width="63.78" height="47.835"/>
			</g>
			<rect class="st10" y="7.1208" width="63.78" height="47.835"/>
			<text class="st4" x="26.89" y="34.04">UI</text>
		</g>
		<g transform="translate(173.11 -39.38)">
			<title>Blad.5</title>
			<desc>Render events</desc>
			<path class="st11" d="m0 54.96h82.42"/>
			<rect class="st13" x="11.772" y="48.956" width="65.04" height="12"/>
			<text class="st14" x="11.77" y="57.96">Render events</text>
		</g>
		<g transform="translate(173.11 -16.832)">
			<title>Blad.8</title>
			<desc>Actions</desc>
			<path class="st15" d="m5.8 54.96h0.36 82.42"/>
			<rect class="st13" x="27.895" y="48.956" width="32.794" height="12"/>
			<text class="st17" x="27.89" y="57.96">Actions</text>
		</g>
		<g transform="translate(66.809 -29.636)">
			<title>Blad.9</title>
			<path class="st18" d="m0 54.96h36.36"/>
		</g>
	</g>
</svg>
